{
    "type": "service_account",
    "project_id": "himalayan-spice-indian-cuisine",
    "private_key_id": "e90824ce1a5fb7fd63726bba1f347bc80d4f7b72",
    "private_key": "-----BEGIN PRIVATE KEY-----\nMIIEvwIBADANBgkqhkiG9w0BAQEFAASCBKkwggSlAgEAAoIBAQC4H+uWOE9tnvEg\nTjz3S+VuedPdeVodB3r1dbCB4fnHJqJ2sPF9GUCA4kafbVP0WIJI/kkIj4w1RHyU\nf0L1cn1WHeqx7b8O6biXBMdCYGXJ2YauDbKp1ISdHWgk/twJ+Sm5GTsHQr4OCW2J\nOMoV2IZ0T5e2CbXVaiE8UG18Rd1q8KvG2O1RcRVBqlThRIuurFsh8Kpx4XJyhGxC\n2fz433iRvHcfN/yYQrGIhkLMjeeuIAvH0oJvLueKsYCSLOG+417pIfttjFns8ZQU\nEMLbwtp437exJW8sJBLVLkZBmGsgPjMV4JamOfc6OAxsXaS27QkplYyvao0BydmI\nt/Wl1KaXAgMBAAECggEAOoI+MSakqs9yjRL/kY/nEMOa3Qp2ZboeSwjCdYty/WNc\nBf51RozzL+F3kqrBnmhPwlU3rQY8hiLEucV06B0hEfAAx9imOV1wwGCO1xtdzRYY\nE5AbwZbcKzcQhI0OLAcmyIBpfwWo8jnxukS3Btke5K/0JC8SvoXymMFwASkMUrIs\nTjFi6iwqb+ef56GSuvx54ThCEaHLUwV2/rhrxWSbKy/XOc6nQFKEW29TgZPnjFH3\nMy8Y29cQzIN03zsTi3wsZQgwn/dfWP3sqb0In5gJI6b0NElgvRXE6pWY4vjLbfWw\nNoVZoq+HWOmhPa47DeLHAbI7Fu+2LL7z0nhZ910s6QKBgQDsksZYycFw2yC1AwVv\nHyQgtF5O+7xFxKCSJS6EQ8GiIuV3gLWHOZPJv4opu0TqXX4GsI24gq8kxhYhL2bY\nQo6KC1iDrfg5vGb2ETH2Ncx5qg2+Vgcfagfb2fy71Kljl4TyEZGIYwDg5/wIKd+f\nDRcZjEAOzSxr/ymmsy7x9QIAnwKBgQDHPpMDHrAL507mGVGpr3WuKR/r9Nv3Ywlm\nTglCF/mvLEG5YJfYz7LDWbD1whW4ubwRVR8cgaV5DeeZviUw27Hhyh4kwLc5NO7I\nIT/Ffg8A6Syokm8nVy7IYuTXXTvad1i5WlaD8hCpmZAKfP/V4WzMa89pn5tZQwZ3\nWRa2VjS/CQKBgQCYmIAqS1FkW2P4fk9mAv9JvS5L4iLqGc+9FRCxLgdbbwj2kWYG\nKISEkPEsw+fLCK0+4Wk4x8rzfHZPx4SeIChTMMhSf8fqbfU36ZWBi+gt3hvpVxJX\nGAyjqjNUcPMmE1kkz2JBSCML73dpSKE+tbHdv9Kd+YgazUbviQrR9UjqXwKBgQCD\n4hOFmSaGepFrFY9Mdmu64FXU5btEQTXTlgvix+Pp462NezaHuNNnI1NTGSkvoSGv\nh1yUjext+Jo41ffgI0vXXOYfBcFCCJuVtQx1OT/NJor8+hDBRaAd2/gF5hzcOutr\npTRnGi+VU6RYjOz7Mb/GgAZGr/MwXoFFNp8mCmHXoQKBgQClxLtcnU9Narn4m9sS\nWKEWvuNy0Ubka7xv3S9A13ZrjFAXP9cyv6MgvOnS5rcdKFfGLibkC9boiVqzqE+S\nahKpKvJnboJDZ0F+NGS62iKJVxncIee5jvczsnd8iR1UOw/GacIDP3T5OgPmtr4b\nlamKQ2eHbb4Umdhfn3piEM7srw==\n-----END PRIVATE KEY-----\n",
    "client_email": "himalayan-spice-indian-cuisine@himalayan-spice-indian-cuisine.iam.gserviceaccount.com",
    "client_id": "109930308109244040875",
    "auth_uri": "https://accounts.google.com/o/oauth2/auth",
    "token_uri": "https://oauth2.googleapis.com/token",
    "auth_provider_x509_cert_url": "https://www.googleapis.com/oauth2/v1/certs",
    "client_x509_cert_url": "https://www.googleapis.com/robot/v1/metadata/x509/himalayan-spice-indian-cuisine%40himalayan-spice-indian-cuisine.iam.gserviceaccount.com"
}
